{
"logs" : {
		
		"consoleLevel" : "silly",
		"loggerLevel" : "silly",
		"maxSize" : 10000000, //10 MB
		"maxFiles" : 10
	},
  "redis": {
		"host": "172.16.22.14",
		"port": "6379"
	},
	"elasticSearch" :{
		"host": "http://172.16.23.14:9200",
		"log": "info"
	}
}
